{
  "project_info": {
    "project_number": "958304336941",
    "firebase_url": "https://fleet-minecraft-master.firebaseio.com",
    "project_id": "fleet-minecraft-master",
    "storage_bucket": "fleet-minecraft-master.appspot.com"
  },
  "client": [
    {
      "client_info": {
        "mobilesdk_app_id": "1:958304336941:android:6567acc83ebf7bb4158ca4",
        "android_client_info": {
          "package_name": "com.mastermine.modfleet"
        }
      },
      "oauth_client": [
        {
          "client_id": "958304336941-nmds4t46h8r8ajpirhnkfn0bsdr3i24q.apps.googleusercontent.com",
          "client_type": 3
        }
      ],
      "api_key": [
        {
          "current_key": "AIzaSyBlFEj7tg47712FBRZWbE1unh_Urh8AXdg"
        }
      ],
      "services": {
        "appinvite_service": {
          "other_platform_oauth_client": [
            {
              "client_id": "958304336941-nmds4t46h8r8ajpirhnkfn0bsdr3i24q.apps.googleusercontent.com",
              "client_type": 3
            }
          ]
        }
      }
    }
  ],
  "configuration_version": "1"
}